{
    "allowable_values": {
        "entity": [
            "location-room",
            "location-floor",
            "location-house",
            "room-property",
            "device",
            "device-component",
            "person-relation",
            "person-name",
            "person-occupation",
            "organization",
            "device-setting",
            "device-property",
            "value-numeric",
            "value-qualitative",
            "value-unit",
            "value-color",
            "value-artist",
            "action",
            "world-property",
            "set_room_property",
            "location-inroom"
        ],
        "intent": [
            "contact",
            "set_device",
            "set_device_group",
            "check_device",
            "check_device_group",
            "set_device_property",
            "set_device_group_property",
            "set_room_property",
            "get_device_property",
            "get_device_group_property",
            "get_room_property",
            "get_world_property",
            "none",
            "detresse"
        ],
        "value": [
            "living_room",
            "kitchen",
            "wc",
            "corridor",
            "bedroom",
            "study",
            "bathroom",
            0,
            1,
            "house",
            "presence",
            "temperature",
            "music_player",
            "tv_music_player",
            "fan",
            "roomba",
            "kettle",
            "hood",
            "cooking_hob",
            "oven",
            "fridge",
            "tap",
            "radio",
            "blind",
            "shutter",
            "drawer",
            "cupboard",
            "window",
            "door",
            "light",
            "colorlight",
            "washing_machine",
            "dishwasher",
            "heating",
            "volume",
            "color",
            "channel",
            "daughter",
            "son",
            "husband",
            "wife",
            "personal_name",
            "doctor",
            "emergency",
            "supermarket",
            "fire_brigade",
            "ON",
            "OFF",
            "SELF_HEATING",
            "OPENED",
            "CLOSED",
            "LOCATION",
            25,
            "a_little",
            "a_lot",
            "degree_celcius",
            "red",
            "artist_name",
            "TURN_ON",
            "TURN_OFF",
            "TURN_UP",
            "TURN_DOWN",
            "RAISE",
            "LOWER",
            "PAUSE",
            "RESTART",
            "OPEN",
            "CLOSE",
            "CONTACT",
            "PLAY",
            "CHANGE",
            "SET_TO",
            "weather",
            "time",
            "1",
            "shower",
            "curtain",
            "CLOSE",
            "ceiling",
            "night_table",
            "STOP"
        ]
    },
    "rasa_nlu_data": {
        "common_examples": [
%%TO_SUBSTITUTE%%
            
        ]
    }
}
